^C:\USERS\HOPCIO\SOURCE\REPOS\BINOMIALHEAP\BINOMIALHEAP\DEBUG\BINOMINALHEAPOO.OBJ|C:\USERS\HOPCIO\SOURCE\REPOS\BINOMIALHEAP\BINOMIALHEAP\DEBUG\BNHEAP.OBJ|C:\USERS\HOPCIO\SOURCE\REPOS\BINOMIALHEAP\BINOMIALHEAP\DEBUG\HASHTABLE.OBJ
C:\USERS\HOPCIO\SOURCE\REPOS\BINOMIALHEAP\DEBUG\BINOMIALHEAP.ILK
C:\USERS\HOPCIO\SOURCE\REPOS\BINOMIALHEAP\DEBUG\BINOMIALHEAP.EXE
C:\USERS\HOPCIO\SOURCE\REPOS\BINOMIALHEAP\DEBUG\BINOMIALHEAP.PDB
